Search url = [https://animepahe.ru/api?m=search&q=erased] {"total":9,"per_page":8,"current_page":1,"last_page":2,"from":1,"to":8,"data":[{"id":304,"title":"Boku dake ga Inai Machi","type":"TV","episodes":12,"status":"Finished Airing","season":"Winter","year":2016,"score":8.31,"poster":"https:\/\/i.animepahe.com\/posters\/8b9c86359ac7dac0954727ddeacc5ed031d27bbf7dacef454729bba8d0c7b00c.jpg","session":"5e591cb7-ea8f-ac6b-3c8b-67a9b403824a"},{"id":675,"title":"Higashi no Eden Movie I: The King of Eden","type":"Movie","episodes":1,"status":"Finished Airing","season":"Fall","year":2009,"score":7.55,"poster":"https:\/\/i.animepahe.com\/posters\/f9ebc65ba9c57a1f3bd2eab15b479d41b418b3928f8ce7f514e9daf3f805e720.jpg","session":"33dbd951-0334-de0e-3141-89d452594348"},{"id":4449,"title":"Deatte 5-byou de Battle","type":"TV","episodes":12,"status":"Finished Airing","season":"Summer","year":2021,"score":6.76,"poster":"https:\/\/i.animepahe.com\/posters\/ebbcd1429d47eacedae7d8af85380950d496d14d322209cd270eb60755e97300.jpg","session":"9422249f-f122-e0c2-5b5d-57b27b3104ed"},{"id":3141,"title":"Phantom The Animation","type":"OVA","episodes":3,"status":"Finished Airing","season":"Winter","year":2004,"score":6.46,"poster":"https:\/\/i.animepahe.com\/posters\/d0e7364a6c4afcdb67f3adcfa33cd1c430f10833d5ab249365b2a53749df21ca.jpg","session":"57bb3859-9fe5-d4b2-9191-9223d38ab245"},{"id":2943,"title":"Pastel Memories","type":"TV","episodes":12,"status":"Finished Airing","season":"Winter","year":2019,"score":5.13,"poster":"https:\/\/i.animepahe.com\/posters\/c021028010d25e74239c8fa55ab79cffeabc41919cecbd841d03cd39ce58d6eb.jpg","session":"da1adaa9-6aeb-3e9e-95fc-5ef32be07bcd"},{"id":4290,"title":"Terra e...","type":"Movie","episodes":1,"status":"Finished Airing","season":"Spring","year":1980,"score":6.42,"poster":"https:\/\/i.animepahe.com\/posters\/1231c669a229ecacda10f8c8432c0a084608c6fcf32137788c6c03eac0cda262.jpg","session":"f1550425-286c-36aa-5c76-dae0193de184"},{"id":4458,"title":"Megaton-kyuu Musashi","type":"TV","episodes":13,"status":"Finished Airing","season":"Fall","year":2021,"score":6.23,"poster":"https:\/\/i.animepahe.com\/posters\/16253fd19e834dd2cb9d481b122c6063fb66559c21d968768bff64d9f3d8f33d.jpg","session":"1fa40bc5-71bd-d436-ba07-f4f90bb6fa73"},{"id":4661,"title":"Vanitas no Karte Part 2","type":"TV","episodes":12,"status":"Finished Airing","season":"Winter","year":2022,"score":8.2,"poster":"https:\/\/i.animepahe.com\/posters\/3ee57aded83ec05030f23d07cc7fa74d1911ca8e4929cbe9e52492f1b405815e.jpg","session":"e8044c68-2de9-9a60-db21-f2014871e564"}]}